<svg xmlns="http://www.w3.org/2000/svg" width="32" height="32" viewBox="0 0 32 32">
  <rect width="32" height="32" fill="#b8123c"/>
  <rect width="32" height="1" fill="#FFFFFF" fill-opacity="0.1"/>
  <g fill="#FFFFFF" opacity="0.7">
    <circle cx="16" cy="16" r="12" opacity="0"/>
    <circle cx="16" cy="16" r="2"/>
  </g>
</svg>
