<svg xmlns="http://www.w3.org/2000/svg" width="40" height="20" viewBox="0 0 40 20">
  <rect x="2" y="2" width="36" height="16" ry="8" fill="#303030" opacity="0.26"/>
  <circle cx="10" cy="10" r="6" fill="#e6e6fa"/>
</svg>
