<svg xmlns="http://www.w3.org/2000/svg" width="32" height="32" viewBox="0 0 32 32">
  <rect width="32" height="32" fill="#b8123c"/>
  <rect width="32" height="1" fill="#e6e6fa" fill-opacity="0.4"/>
  <g fill="#303030" opacity="0.38">
    <circle cx="16" cy="16" r="12" opacity="0"/>
    <path d="m12 18h8v2h-8z"/>
  </g>
</svg>
